Chapter 1 | yet another SNA coursebook
…
## edgelist:
ison_karateka %>% 
  as_edgelist()
#> # A tibble: 78 × 3
#>    from  to    weight
#>    <chr> <chr>  <dbl>
#>  1 Mr Hi 2          4
#>  2 Mr Hi 3          5
#>  3 2     3          6
#>  4 Mr Hi 4          3
#>  5 2     4          3
#>  6 3     4          3
#>  7 Mr Hi 5          3
#>  8 Mr Hi 6          3
#>  9 Mr Hi 7          3
#> 10 5     7          2
#> # ℹ 68 more rows

## nodelist:
ison_karateka %>% 
  as_nodelist()
#> # A tibble: 34 × 2
#>    name  allegiance
#>    <chr>      <dbl>
#>  1 Mr Hi          1
#>  2 2              1
#>  3 3              1
#>  4 4              1
#>  5 5              1
#>  6 6              1
#>  7 7              1
#>  8 8              1
#>  9 9              2
#> 10 10             2
#> # ℹ 24 more rows
…
