…
#ison_karateka %>% 
#  as_adj()
```


To get an edgelist, you can use the `as_edgelist()` function, which returns a table with two columns. Variable `from` refers to the sender of the tie, and `to` refers to the tie receiver. `weight` stands for the strength of the relations among the two persons.



``` r
## edgelist:
ison_karateka %>% 
  as_edgelist()
#> # A tibble: 78 × 3
#>    from  to    weight
#>    <chr> <chr>  <dbl>
#>  1 Mr Hi 2          4
#>  2 Mr Hi 3          5
#>  3 2     3          6
#>  4 Mr Hi 4          3
#>  5 2     4          3
#>  6 3     4          3
#>  7 Mr Hi 5          3
#>  8 Mr Hi 6          3
#>  9 Mr Hi 7          3
#> 10 5     7          2
#> # ℹ 68 more rows
```



For the nodelist, `igraph` is of little help, as it does not have a function for retreiving the data in this format. Though, we can use the function `as_nodelist()` from the `manynet` package. The "name" attribute corresponds to the ids of your nodes from the edgelist, and the "allegiance" is the only additional attribute associated with the nodes.



``` r
## nodelist:
ison_karateka %>% 
  as_nodelist() ## from "manynet"
#> # A tibble: 34 × 2
#>    name  allegiance
#>    <chr>      <dbl>
#>  1 Mr Hi          1
#>  2 2              1
#>  3 3              1
#>  4 4              1
#>  5 5              1
#>  6 6              1
#>  7 7              1
#>  8 8              1
#>  9 9              2
#> 10 10             2
#> # ℹ 24 more rows
```
…
